G04 #@! TF.FileFunction,Profile,NP*
%FSLAX46Y46*%
G04 Gerber Fmt 4.6, Leading zero omitted, Abs format (unit mm)*
G04 Created by KiCad (PCBNEW 4.0.7) date 02/12/19 19:11:39*
%MOMM*%
%LPD*%
G01*
G04 APERTURE LIST*
%ADD10C,0.100000*%
%ADD11C,0.150000*%
G04 APERTURE END LIST*
D10*
D11*
X21666666Y-189900000D02*
G75*
G03X21666666Y-189900000I-1666666J0D01*
G01*
X17500000Y-189900000D02*
X22500000Y-189900000D01*
X20000000Y-187400000D02*
X20000000Y-192400000D01*
X20000000Y-189900000D02*
X20000000Y-29900000D01*
X120000000Y-189900000D02*
X20000000Y-189900000D01*
X120000000Y-29900000D02*
X120000000Y-189900000D01*
X20000000Y-29900000D02*
X120000000Y-29900000D01*
M02*
